<?xml version="1.0" encoding="utf-8"?>
<!-- Generator: Adobe Illustrator 19.0.0, SVG Export Plug-In . SVG Version: 6.00 Build 0)  -->
<svg version="1.1" xmlns="http://www.w3.org/2000/svg" xmlns:xlink="http://www.w3.org/1999/xlink" x="0px" y="0px"
	 viewBox="0 0 6924 1221.7" style="enable-background:new 0 0 6924 1221.7;" xml:space="preserve">
<style type="text/css">
	.st0{fill-rule:evenodd;clip-rule:evenodd;fill:#FFFFFF;}
	.st1{fill-rule:evenodd;clip-rule:evenodd;fill:#0177B5;}
	.st2{fill-rule:evenodd;clip-rule:evenodd;fill:#5B0A0A;}
	.st3{fill-rule:evenodd;clip-rule:evenodd;fill:none;stroke:#FFFFFF;stroke-width:5.9734;stroke-miterlimit:2.6131;}
	.st4{fill-rule:evenodd;clip-rule:evenodd;fill:#00A651;}
</style>
<g id="Guides_For_Artboard">
</g>
<g id="Layer_1">
	<polygon class="st0" points="306,889.6 596,632.7 748.7,777.7 296.4,1164.2 30.7,933.7 186.7,798.8 	"/>
	<path class="st1" d="M131.7,47.3h905.9c54.5,0,99.1,48.8,99.1,108.4v944.4c0,59.6-44.6,108.4-99.1,108.4H131.7
		c-54.5,0-99.1-48.8-99.1-108.4V155.7C32.6,96,77.2,47.3,131.7,47.3z"/>
	<path class="st0" d="M54.3,962.7H1115v127.4c0,51.8-36.2,94.1-83.5,94.1H137.8c-47.3,0-83.5-42.4-83.5-94.1V962.7z"/>
	<path class="st2" d="M268.6,1108.6c0,16.2-2.8,27.4-8.4,33.5c-5.3,5.8-14.3,8.7-27.1,8.7h-62V999.5h59.8c13.4,0,22.6,3.2,27.7,9.5
		c4.8,5.9,7.2,15.9,7.2,29.8c0,11.6-1.6,20-4.9,25.2c-2.5,3.9-6.5,6.7-12.1,8.3v0.8c10.7,1.5,17,8.1,18.8,19.6
		C268.2,1097.3,268.6,1102.6,268.6,1108.6L268.6,1108.6z M242.8,1041.6c0-6.7-1-11.3-2.9-13.7c-1-1.2-2.4-2.1-4.2-2.7
		c-2.1-0.6-5.5-1-10.2-1h-31.7v38.5h31.4c3.7,0,6.2-0.1,7.5-0.4C239.5,1061,242.8,1054.1,242.8,1041.6L242.8,1041.6z M245.5,1106.2
		c0-8.3-1-14-3-16.9c-2.3-2.8-6.7-4.2-13.1-4.2h-35.5v40.9h34.2c4.2,0,7.4-0.4,9.8-1.2C243,1122.5,245.5,1116.2,245.5,1106.2
		L245.5,1106.2z M382.1,1044.4c0,16.7-1.8,27.7-5.3,33.1c-3.2,4.9-8.5,8.2-15.9,9.9v0.6c7,0.8,12.3,3.9,15.9,9
		c2.9,5.8,4.3,14.4,4.3,25.6v28H358v-22.8c0-11-1.2-18.3-3.7-21.7c-2.6-3.7-7.5-5.5-14.6-5.5h-32v50h-22.9V999.5h58.7
		c15.5,0,25.9,3.8,31.4,11.5C379.7,1017.7,382.1,1028.9,382.1,1044.4L382.1,1044.4z M359,1049.1c0-9.5-0.9-16-2.7-19.4
		c-2.3-3.6-7.7-5.4-16.2-5.4h-32.3v51.6h33c7,0,12-1.9,15-5.8C357.9,1066.5,359,1059.4,359,1049.1L359,1049.1z M503.6,1150.7h-23.4
		l-7.6-28.5h-51.7l-7.7,28.5h-23.7l39.8-151.2h33.6L503.6,1150.7L503.6,1150.7z M467.2,1100.3l-20.5-78.9l-0.1,0l-20.6,78.8H467.2
		L467.2,1100.3z M536.3,1150.7h-23.1V999.5h23.1V1150.7L536.3,1150.7z M668,1150.7h-38.4L579,1024.3h-0.9l1.3,62.7l0.6,63.7h-23.1
		V999.5h38l51.3,126.4h0.6l-1.9-126.4H668V1150.7z"/>
	<path class="st2" d="M856,999.5l-32,151.2h-33.3l-23.9-115.3h-0.6l-24.7,115.3h-32.9l-31-151.2h23.1l24.8,127.6h0.6l27.3-127.6
		h26.4l26.7,127.6h0.7l25.8-127.6H856L856,999.5z M888.7,1150.7h-23.1V999.5h23.1V1150.7L888.7,1150.7z M998.3,1150.7h-95.5v-24.4
		l66.1-102h-62.9v-24.8h91.4v24.8l-65.9,101.6h66.9V1150.7z"/>
	<path class="st0" d="M500,138.2h125v645.9c263.8-42.9,195.5-353.9,11-352.8L688.6,329c363.7,98.6,285.5,549.5-96,570.7H500V138.2z"
		/>
	<g>
		<polygon class="st3" points="174.7,788 262.2,715.4 346.5,776.9 549.6,604.3 634.9,682.1 338.9,924.7 		"/>
		<path class="st4" d="M174.7,788l87.5-72.6l84.3,61.5l203.1-172.6l85.3,77.7l-296,242.6L174.7,788z"/>
	</g>
	<path class="st1" d="M1974.2,598.8c0,81.9-19,138.3-56.9,169.2c-35.6,29.2-96.4,43.8-182.7,43.8h-418.5V47.3h403.6
		c90.4,0,152.6,16,186.8,48.1c32.2,29.9,48.3,80.2,48.3,150.7c0,58.8-11.1,101.3-33.3,127.4c-16.6,19.9-43.8,33.8-81.6,41.8v4.1
		c72.5,7.8,114.9,41,127,99.2C1971.8,542.1,1974.2,568.7,1974.2,598.8L1974.2,598.8z M1800.3,260.3c0-34-6.4-57.1-19.3-69.3
		c-6.8-6.1-16.1-10.5-28.1-13.4c-14.3-3.2-37.2-4.9-68.5-4.9h-213.6v194.7h211.7c25,0,41.9-0.7,50.3-2
		C1777.7,358.2,1800.3,323.2,1800.3,260.3L1800.3,260.3z M1818.5,586.8c0-42.1-6.8-70.7-20.4-85.6c-15.7-14.3-45.1-21.4-88-21.4
		h-239.4v206.8h231c28.1,0,50.1-2,66.2-5.9C1801.7,669,1818.5,637.6,1818.5,586.8L1818.5,586.8z M2739.7,274.4
		c0,84.3-11.8,140.2-35.6,167.4c-21.8,24.8-57.4,41.5-107.4,50v3.1c47.2,4.2,83,19.5,107.2,45.7c19.5,29.4,29.2,72.7,29.2,129.6
		v141.7h-155.7V696.7c0-55.7-8.2-92.4-24.7-109.9c-17.4-18.5-50.5-27.7-98.8-27.7h-215.8v252.8h-154.6V47.3h396.1
		c104.5,0,175,19.4,211.5,57.9C2723.6,139.4,2739.7,195.9,2739.7,274.4L2739.7,274.4z M2584.1,298.2c0-48.3-6.1-80.9-18.4-98.2
		c-15.7-18.2-52.2-27.4-109.5-27.4h-217.9v261h222.4c47.4,0,81.2-9.9,100.9-29.4C2576.6,385.9,2584.1,350.4,2584.1,298.2
		L2584.1,298.2z M3559.5,811.9h-157.6L3350.4,668h-348.7L2950,811.9h-160l268.4-764.6h226.5L3559.5,811.9L3559.5,811.9z M3313.9,557
		l-138.5-398.8l-0.9,0.2L3035.8,557H3313.9L3313.9,557z M3779.8,811.9h-155.7V47.3h155.7V811.9L3779.8,811.9z M4668.3,811.9h-258.7
		L4068,172.7h-6.3l8.8,317.1l4.1,322.2H3919V47.3h256.6l345.7,639.2h4.3l-12.9-639.2h155.7V811.9z"/>
	<path class="st4" d="M5936.1,47.3l-215.8,764.6h-224.4l-161.2-583.1h-3.9l-166.6,583.1H4942L4732.9,47.3h155.8L5056,692.6h4.3
		l184.5-645.3h178.2l180.3,645.3h4.5l173.7-645.3H5936.1L5936.1,47.3z M6156.3,811.9h-155.7V47.3h155.7V811.9L6156.3,811.9z
		 M6895.8,811.9h-644.3V688.4L6697,172.7h-424V47.3h616.2v125.4l-444.4,513.8h451V811.9z"/>
	<path class="st1" d="M1348.3,1151.7V922h42v84.7h127.2V922h42v229.7h-42v-111.6h-127.2v111.6H1348.3L1348.3,1151.7z M1644.4,1221.7
		h-39.4l45.9-82.9l-61.5-135.9h42.4l30.7,77c1.8,4.7,3.3,9.5,4.7,14.4c1.3,4.9,2.4,9.8,3.2,14.8c1.5-5.2,5.2-13.5,10.9-25l0.9-1.9
		l41.3-79.4h41.5L1644.4,1221.7L1644.4,1221.7z M1906.2,1076.8c0-15.4-4-27.3-12.1-35.9c-8.1-8.6-19.3-12.9-33.8-12.9
		c-14.5,0-25.9,4.4-34.2,13.3c-8.2,8.8-12.4,21.1-12.4,36.8c0,15.8,4,28,12,36.6c8,8.6,19.3,12.9,33.9,12.9
		c13.9,0,25.1-4.6,33.8-13.9C1901.9,1104.4,1906.2,1092.2,1906.2,1076.8L1906.2,1076.8z M1905.2,908.5h38.3v243.2h-38.3v-19.3
		c-6.8,8.6-14.8,14.9-23.9,19.1c-9.1,4.2-19.5,6.3-31.3,6.3c-23.6,0-42.2-7.2-55.9-21.6c-13.6-14.4-20.4-34.1-20.4-59.1
		c0-23.7,6.9-42.9,20.9-57.5c13.9-14.6,32-21.9,54.4-21.9c13.6,0,25.3,2.5,35,7.6c9.7,5.1,16.8,12.4,21.3,21.9V908.5L1905.2,908.5z
		 M2157.7,1082.4h-133.9c1,13.9,5.6,24.7,14,32.6c8.3,7.8,19.5,11.7,33.4,11.7c12.4,0,22.7-2.3,30.9-6.9
		c8.2-4.6,15.4-12.1,21.6-22.3l32.3,16c-9.4,14.9-21.1,26.1-35,33.4c-13.9,7.3-30.2,11-48.9,11c-26.8,0-48.2-7.3-64.1-21.8
		c-15.9-14.6-23.9-34-23.9-58.2c0-23.4,8.2-42.5,24.7-57.5c16.4-15,37.5-22.5,63.3-22.5c26.9,0,48,6.9,63,20.6
		c15.1,13.7,22.6,32.9,22.6,57.6V1082.4L2157.7,1082.4z M2118,1059.4c-1.5-10.7-6.2-18.8-13.8-24.4c-7.7-5.6-18.1-8.4-31.4-8.4
		c-12.6,0-22.7,2.7-30.4,8.1c-7.7,5.5-13,13.7-16.1,24.6H2118L2118,1059.4z M2235.9,1026.6c4.1-9.8,9.6-17.1,16.3-21.8
		c6.8-4.7,15.1-7.1,25.2-7.1c5.4,0,10.7,0.6,16,1.7c5.3,1.2,10.4,2.8,15.4,5l-13.8,28.9c-3.3-2.1-6.8-3.6-10.7-4.6
		c-3.8-1-8.1-1.5-12.8-1.5c-12.7,0-21.8,4.5-27.4,13.5c-5.5,9.1-8.3,24.3-8.3,45.6v65.3h-38.3v-149.1h38.3V1026.6L2235.9,1026.6z
		 M2488.2,1151.7h-38.3v-19.3c-6.8,8.6-14.8,14.9-23.9,19.1c-9.1,4.2-19.5,6.3-31.3,6.3c-23.6,0-42.2-7.2-55.9-21.6
		c-13.6-14.4-20.4-34.1-20.4-59.1c0-23.7,6.9-42.9,20.9-57.5c13.9-14.6,32-21.9,54.4-21.9c13.6,0,25.3,2.5,35,7.6
		c9.7,5.1,16.8,12.4,21.3,21.9V1003h38.3V1151.7L2488.2,1151.7z M2450.9,1076.8c0-15.4-4-27.3-12.1-35.9
		c-8.1-8.6-19.3-12.9-33.8-12.9c-14.5,0-25.9,4.4-34.2,13.3c-8.3,8.8-12.4,21.1-12.4,36.8c0,15.8,4,28,12,36.6
		c8,8.6,19.3,12.9,33.9,12.9c13.8,0,25-4.7,33.6-14C2446.6,1104.3,2450.9,1092.1,2450.9,1076.8L2450.9,1076.8z M2578.2,1076.8
		c0,15.2,4.4,27.4,13.2,36.7c8.7,9.3,20.1,14,33.9,14c14.5,0,25.7-4.3,33.6-12.9c8-8.6,11.9-20.8,11.9-36.6c0-15.7-4.2-28-12.4-36.8
		c-8.3-8.8-19.7-13.3-34.2-13.3c-14.5,0-25.8,4.3-33.9,12.9C2582.3,1049.5,2578.2,1061.5,2578.2,1076.8L2578.2,1076.8z
		 M2579.5,908.5v118.7c4.5-9.4,11.6-16.7,21.5-21.8c9.8-5.1,21.6-7.7,35.2-7.7c22.2,0,40.3,7.3,54.1,21.9
		c13.8,14.6,20.7,33.7,20.7,57.5c0,25-6.8,44.7-20.4,59.1c-13.6,14.4-32.2,21.6-55.9,21.6c-11.8,0-22.2-2.1-31.3-6.3
		c-9.1-4.2-17.1-10.6-23.9-19.1v19.3h-38.3V908.5H2579.5L2579.5,908.5z M2909.1,1151.7h-38.3v-19.3c-6.8,8.6-14.8,14.9-23.9,19.1
		c-9.1,4.2-19.5,6.3-31.3,6.3c-23.6,0-42.2-7.2-55.9-21.6c-13.6-14.4-20.4-34.1-20.4-59.1c0-23.7,6.9-42.9,20.9-57.5
		c13.9-14.6,32-21.9,54.4-21.9c13.6,0,25.3,2.5,35,7.6c9.7,5.1,16.8,12.4,21.3,21.9V1003h38.3V1151.7L2909.1,1151.7z M2871.9,1076.8
		c0-15.4-4-27.3-12.1-35.9c-8.1-8.6-19.3-12.9-33.8-12.9c-14.5,0-25.9,4.4-34.2,13.3c-8.2,8.8-12.4,21.1-12.4,36.8
		c0,15.8,4,28,12,36.6c8,8.6,19.3,12.9,33.9,12.9c13.8,0,25-4.7,33.6-14C2867.5,1104.3,2871.9,1092.1,2871.9,1076.8L2871.9,1076.8z
		 M3082.3,1076.8c0-15.4-4-27.3-12.1-35.9c-8.1-8.6-19.3-12.9-33.8-12.9c-14.5,0-25.8,4.4-34.2,13.3c-8.2,8.8-12.4,21.1-12.4,36.8
		c0,15.8,4,28,12,36.6c8,8.6,19.3,12.9,33.9,12.9c13.9,0,25.1-4.6,33.7-13.9C3078,1104.4,3082.3,1092.2,3082.3,1076.8L3082.3,1076.8
		z M3081.2,908.5h38.3v243.2h-38.3v-19.3c-6.8,8.6-14.8,14.9-23.9,19.1c-9.1,4.2-19.5,6.3-31.3,6.3c-23.6,0-42.2-7.2-55.9-21.6
		c-13.6-14.4-20.4-34.1-20.4-59.1c0-23.7,6.9-42.9,20.9-57.5c13.9-14.6,32-21.9,54.4-21.9c13.6,0,25.3,2.5,35,7.6
		c9.7,5.1,16.8,12.4,21.3,21.9V908.5L3081.2,908.5z M3161.3,926.4h28.9v87.4h-28.9V926.4L3161.3,926.4z M3212.3,1124.7l31.8-15.4
		c2.3,7.5,6.7,13.1,13.1,17c6.4,3.9,14.5,5.8,24.6,5.8c8.6,0,15.3-1.8,20.2-5.2c4.9-3.5,7.4-8.3,7.4-14.4c0-8.1-8.7-15-26.1-20.7
		c-5.9-1.9-10.4-3.4-13.6-4.7c-17.9-6.6-30.4-13.3-37.5-20.1c-7.1-6.8-10.7-15-10.7-24.8c0-13.3,5.8-24.1,17.6-32.4
		c11.7-8.2,27.2-12.4,46.5-12.4c13,0,24.1,2.1,33.3,6.4c9.2,4.2,16,10.2,20.2,18.1l-27.2,16.7c-2-4.7-5.5-8.5-10.5-11.3
		c-5-2.8-10.8-4.2-17.4-4.2c-7.3,0-13.1,1.6-17.5,4.7c-4.4,3.1-6.6,7.2-6.6,12.3c0,7.7,9.9,14.8,29.7,21.2c6.3,2,11.1,3.6,14.5,4.9
		c15.4,5.4,26.5,11.6,33.1,18.4c6.7,6.9,10,15.4,10,25.7c0,14.8-6.1,26.5-18.2,34.9c-12.1,8.4-28.8,12.6-50.1,12.6
		c-16.4,0-30-2.7-40.8-8.1C3226.9,1144.2,3218.5,1135.9,3212.3,1124.7L3212.3,1124.7z M3539,1019h16c20,0,34.2-2.4,42.5-7.3
		c8.3-4.9,12.4-13.1,12.4-24.6c0-12.5-3.8-21.4-11.4-26.5c-7.7-5.1-22.1-7.6-43.5-7.6h-16V1019L3539,1019z M3539,1120.5h14.5
		c14.7,0,25.7-0.5,33-1.6c7.3-1.1,13-2.9,17.3-5.5c5.2-3,9.2-7.1,12-12.2c2.8-5.1,4.2-10.8,4.2-17c0-7.3-1.7-13.7-5.1-19.1
		c-3.4-5.5-8.3-9.7-14.6-12.7c-4-1.8-8.6-3.1-13.7-4c-5.1-0.8-11.9-1.2-20.4-1.2h-12.7H3539V1120.5L3539,1120.5z M3497.9,1151.7V922
		h65.2c18.6,0,32.4,0.9,41.2,2.7c8.9,1.8,16.4,4.7,22.7,8.8c8,5.3,14.2,12.1,18.6,20.6c4.4,8.5,6.6,17.8,6.6,28.1
		c0,12.3-3.2,22.5-9.5,30.7c-6.4,8.2-15.6,13.9-27.7,17.2c15.1,2.1,26.9,8.2,35.6,18.3c8.6,10.1,13,22.8,13,38.2
		c0,9.3-1.8,18.2-5.5,26.5c-3.6,8.4-8.8,15.5-15.6,21.4c-7.1,6.4-15.8,10.9-26.3,13.5c-10.5,2.6-28.1,3.9-52.8,3.9H3497.9
		L3497.9,1151.7z M3864.2,1082.4h-133.9c1,13.9,5.6,24.7,14,32.6c8.3,7.8,19.5,11.7,33.4,11.7c12.4,0,22.7-2.3,30.9-6.9
		c8.3-4.6,15.4-12.1,21.6-22.3l32.3,16c-9.4,14.9-21.1,26.1-35,33.4c-13.9,7.3-30.2,11-48.9,11c-26.8,0-48.2-7.3-64.1-21.8
		c-15.9-14.6-23.9-34-23.9-58.2c0-23.4,8.2-42.5,24.7-57.5c16.4-15,37.5-22.5,63.3-22.5c26.9,0,48,6.9,63,20.6
		c15.1,13.7,22.6,32.9,22.6,57.6V1082.4L3864.2,1082.4z M3824.5,1059.4c-1.5-10.7-6.1-18.8-13.8-24.4c-7.7-5.6-18.1-8.4-31.4-8.4
		c-12.6,0-22.7,2.7-30.4,8.1c-7.7,5.5-13,13.7-16.1,24.6H3824.5L3824.5,1059.4z M3884.9,1124.7l31.8-15.4c2.3,7.5,6.7,13.1,13.1,17
		c6.4,3.9,14.5,5.8,24.6,5.8c8.6,0,15.3-1.8,20.2-5.2c4.9-3.5,7.3-8.3,7.3-14.4c0-8.1-8.7-15-26.1-20.7c-5.9-1.9-10.4-3.4-13.6-4.7
		c-17.9-6.6-30.4-13.3-37.5-20.1c-7.1-6.8-10.7-15-10.7-24.8c0-13.3,5.8-24.1,17.6-32.4c11.7-8.2,27.2-12.4,46.5-12.4
		c13,0,24,2.1,33.3,6.4c9.2,4.2,16,10.2,20.2,18.1l-27.2,16.7c-2-4.7-5.5-8.5-10.5-11.3c-5-2.8-10.8-4.2-17.4-4.2
		c-7.3,0-13.1,1.6-17.5,4.7c-4.4,3.1-6.6,7.2-6.6,12.3c0,7.7,9.9,14.8,29.7,21.2c6.3,2,11.1,3.6,14.5,4.9
		c15.4,5.4,26.5,11.6,33.1,18.4c6.7,6.9,10,15.4,10,25.7c0,14.8-6.1,26.5-18.2,34.9c-12.1,8.4-28.8,12.6-50.1,12.6
		c-16.4,0-30-2.7-40.8-8.1C3899.5,1144.2,3891.1,1135.9,3884.9,1124.7L3884.9,1124.7z M4067.2,1151.7v-118.9h-29.3V1003h29.3v-56.3
		h38.3v56.3h29.3v29.8h-29.3v118.9H4067.2L4067.2,1151.7z M4280.8,1151.7V922h42v229.7H4280.8L4280.8,1151.7z M4380,1151.7V1003h36
		v24.3c7.7-10.3,16.6-17.7,27-22.4c10.4-4.7,23-7.1,37.8-7.1c12.5,0,23.1,1.8,31.9,5.3c8.7,3.5,15.6,8.7,20.6,15.6
		c3,4.1,5.1,8.8,6.4,14.2c1.3,5.5,1.9,15,1.9,28.5v90.3h-38.7v-76.4c0-19.5-2.6-32.6-8-39c-5.4-6.4-14.9-9.6-28.5-9.6
		c-9,0-16.9,1.5-23.9,4.4c-7,2.9-12.5,7.1-16.5,12.4c-2.8,3.6-4.8,8.1-5.9,13.8c-1.1,5.6-1.7,14.5-1.7,26.7v67.8H4380L4380,1151.7z
		 M4573.4,1124.7l31.8-15.4c2.3,7.5,6.7,13.1,13.1,17c6.4,3.9,14.5,5.8,24.6,5.8c8.6,0,15.3-1.8,20.2-5.2c4.9-3.5,7.3-8.3,7.3-14.4
		c0-8.1-8.7-15-26.1-20.7c-5.9-1.9-10.4-3.4-13.6-4.7c-17.9-6.6-30.4-13.3-37.5-20.1c-7.1-6.8-10.7-15-10.7-24.8
		c0-13.3,5.8-24.1,17.6-32.4c11.7-8.2,27.2-12.4,46.5-12.4c13,0,24,2.1,33.3,6.4c9.2,4.2,16,10.2,20.2,18.1l-27.2,16.7
		c-2-4.7-5.5-8.5-10.5-11.3c-5-2.8-10.8-4.2-17.4-4.2c-7.3,0-13.1,1.6-17.5,4.7c-4.4,3.1-6.6,7.2-6.6,12.3c0,7.7,9.9,14.8,29.7,21.2
		c6.3,2,11.1,3.6,14.5,4.9c15.4,5.4,26.5,11.6,33.1,18.4c6.7,6.9,10,15.4,10,25.7c0,14.8-6.1,26.5-18.2,34.9
		c-12.1,8.4-28.8,12.6-50.1,12.6c-16.4,0-30-2.7-40.8-8.1C4587.9,1144.2,4579.5,1135.9,4573.4,1124.7L4573.4,1124.7z M4755.6,1151.7
		v-118.9h-29.3V1003h29.3v-56.3h38.3v56.3h29.3v29.8h-29.3v118.9H4755.6L4755.6,1151.7z M4852.9,938.6c0-5.8,2.4-10.8,7.2-14.9
		c4.8-4.2,10.4-6.3,17-6.3c6.9,0,12.5,2,17.1,6.1c4.5,4,6.8,9.1,6.8,15.2c0,6.1-2.3,11.1-6.9,15.3c-4.6,4.1-10.2,6.2-17,6.2
		c-6.6,0-12.2-2.1-17-6.4C4855.3,949.5,4852.9,944.5,4852.9,938.6L4852.9,938.6z M4858,1151.7V1003h38.3v148.7H4858L4858,1151.7z
		 M4960,1151.7v-118.9h-29.3V1003h29.3v-56.3h38.3v56.3h29.3v29.8h-29.3v118.9H4960L4960,1151.7z M5097.8,1003v83.8
		c0,14.5,3.4,24.8,10.1,31.1c6.7,6.3,17.6,9.4,32.7,9.4c15,0,25.9-3.2,32.6-9.4c6.7-6.3,10.1-16.6,10.1-31.1V1003h38.3v73.6
		c0,28.4-6.4,49.1-19.2,62c-12.8,12.9-33.3,19.3-61.5,19.3c-28.6,0-49.3-6.4-62.1-19.1c-12.8-12.8-19.2-33.5-19.2-62.1V1003H5097.8
		L5097.8,1003z M5282.2,1151.7v-118.9h-29.3V1003h29.3v-56.3h38.3v56.3h29.3v29.8h-29.3v118.9H5282.2L5282.2,1151.7z M5544,1082.4
		h-133.9c1,13.9,5.6,24.7,14,32.6c8.3,7.8,19.5,11.7,33.4,11.7c12.4,0,22.7-2.3,30.9-6.9c8.2-4.6,15.4-12.1,21.6-22.3l32.3,16
		c-9.4,14.9-21.1,26.1-35,33.4c-13.9,7.3-30.2,11-48.9,11c-26.8,0-48.2-7.3-64.1-21.8c-15.9-14.6-23.9-34-23.9-58.2
		c0-23.4,8.2-42.5,24.7-57.5c16.4-15,37.5-22.5,63.3-22.5c26.9,0,48,6.9,63,20.6c15.1,13.7,22.6,32.9,22.6,57.6V1082.4L5544,1082.4z
		 M5504.3,1059.4c-1.5-10.7-6.2-18.8-13.8-24.4c-7.7-5.6-18.1-8.4-31.4-8.4c-12.6,0-22.7,2.7-30.4,8.1c-7.7,5.5-13,13.7-16.1,24.6
		H5504.3L5504.3,1059.4z M5698.4,1151.7v-118.9h-29.3V1003h29.3v-39.9c0-19.8,4.6-34.3,13.9-43.8c9.2-9.4,23.6-14.1,43-14.1
		c4.2,0,8.4,0.3,12.7,0.8c4.4,0.5,8.8,1.3,13.3,2.5v30.7c-3.1-1.6-6.2-2.7-9.3-3.5c-3.1-0.8-6.3-1.2-9.4-1.2
		c-9.2,0-15.8,2.5-19.8,7.5c-4,5-6,13.5-6,25.4v35.5h40.3v29.8h-40.3v118.9H5698.4L5698.4,1151.7z M5935.4,1077.8
		c0-13.8-5-25.5-15-35.1c-10-9.6-22.2-14.3-36.7-14.3c-14.4,0-26.6,4.8-36.6,14.3c-10.1,9.6-15.1,21.3-15.1,35.1
		c0,13.8,5.1,25.5,15.1,35.1c10.1,9.6,22.2,14.4,36.6,14.4c14.3,0,26.5-4.8,36.6-14.4C5930.3,1103.3,5935.4,1091.6,5935.4,1077.8
		L5935.4,1077.8z M5791.4,1077.5c0-10.9,2.3-21.2,7-30.8c4.6-9.7,11.3-18.3,20-25.8c8.6-7.4,18.5-13.1,29.7-17.1
		c11.2-4,22.8-5.9,35.1-5.9c12.6,0,24.4,2,35.6,5.9c11.2,4,21.1,9.9,30,17.6c8.8,7.7,15.6,16.3,20.1,25.9c4.6,9.6,6.9,19.7,6.9,30.3
		c0,11-2.3,21.3-6.8,30.9c-4.5,9.6-11.2,18.2-19.8,25.6c-9.2,7.8-19.4,13.8-30.6,17.8c-11.2,4-23,6.1-35.3,6.1
		c-12.2,0-23.8-2-35-6.1c-11.2-4-21.1-9.9-29.8-17.5c-8.8-7.8-15.5-16.5-20.1-26.1C5793.7,1098.6,5791.4,1088.4,5791.4,1077.5
		L5791.4,1077.5z M6054.7,1026.6c4.1-9.8,9.6-17.1,16.3-21.8c6.7-4.7,15.1-7.1,25.2-7.1c5.4,0,10.7,0.6,16,1.7
		c5.2,1.2,10.4,2.8,15.4,5l-13.8,28.9c-3.3-2.1-6.8-3.6-10.7-4.6c-3.8-1-8.1-1.5-12.8-1.5c-12.7,0-21.8,4.5-27.4,13.5
		c-5.5,9.1-8.3,24.3-8.3,45.6v65.3h-38.3v-149.1h38.3V1026.6L6054.7,1026.6z M6469.3,977.9c-11.9-9-24.5-15.7-37.7-20.2
		c-13.3-4.5-27.2-6.8-41.8-6.8c-28.3,0-51.2,8-69,24.2c-17.7,16.1-26.6,37-26.6,62.6c0,24.8,8.6,45.3,25.9,61.4
		c17.2,16.1,39,24.2,65.3,24.2c15.2,0,29.8-2.4,43.7-7.2c13.8-4.8,27.1-12.1,39.8-21.8v42.2c-11.3,7.2-23.6,12.6-36.9,16.1
		c-13.3,3.6-27.7,5.4-43.3,5.4c-19.8,0-38-2.9-54.8-8.6c-16.7-5.8-31.5-14.2-44.2-25.4c-12.6-11-22.2-23.9-29-38.8
		c-6.8-14.9-10.1-30.8-10.1-47.6c0-16.9,3.4-32.7,10.1-47.5c6.8-14.8,16.6-27.8,29.4-39c12.8-11.3,27.5-19.9,44.2-25.7
		c16.6-5.8,34.5-8.7,53.8-8.7c15.2,0,29.7,2,43.4,5.9c13.7,3.9,27.1,9.9,40.1,17.8L6469.3,977.9L6469.3,977.9z M6563.4,1019.9h7.6
		c22.2,0,37-2.3,44.3-6.9c7.3-4.6,11-12.7,11-24.5c0-12.6-3.9-21.5-11.8-26.7c-7.8-5.2-22.4-7.8-43.5-7.8h-7.6V1019.9L6563.4,1019.9
		z M6560.8,1048.9v102.8h-39.4V922h58.6c17.2,0,30.6,1,40,3c9.5,2,17.5,5.3,24.3,9.9c8,5.6,14.2,12.7,18.6,21.5
		c4.3,8.8,6.5,18.4,6.5,28.9c0,18.4-5,32.8-15,43.2c-10,10.4-24.8,16.7-44.4,18.7l89,104.5h-47.5l-86-102.8H6560.8L6560.8,1048.9z
		 M6807.4,953.7h68.3V922h-179.1v31.7h68.7v198h42V953.7z"/>
</g>
</svg>
